Problem set 6
…
raw_dat %>%
  count(candidate_name, sort = TRUE)

# A tibble: 64 × 2
   candidate_name        n
   <chr>             <int>
 1 Donald Trump       5973
 2 Joe Biden          3883
 3 Kamala Harris      2652
 4 Jill Stein         1379
 5 Robert F. Kennedy  1346
 6 Cornel West         952
 7 Chase Oliver        827
 8 Ron DeSantis        466
 9 Nikki Haley         152
10 Lars Mapstead        59
# ℹ 54 more rows
…
res_2020 <- res_2020 %>%
  add_row(state = "Maine CD-1", party = "D") %>%
  add_row(state = "Maine CD-2", party = "R") %>%
  add_row(state = "Nebraska CD-2", party = "D") %>%
  add_row(state = "District of Columbia", party = "D")

print(res_2020)

# A tibble: 62 × 2
   state       party
   <chr>       <chr>
 1 Nationwide  D    
 2 Alabama     R    
 3 Alaska      R    
 4 Arizona     D    
 5 Arkansas    R    
 6 California  D    
 7 Colorado    D    
 8 Connecticut D    
 9 Delaware    D    
10 Florida     R    
# ℹ 52 more rows
…
